cod_municipio;cod_setor;cod_agrupamento;n_habintates;n_domicilios;n_habitantes(5/60);tipo_regiao;situacao_regiao;geometry
1503002;150300205000001;3;447;111;365;1;1;POLYGON((-56.7449363552874928, -2.1698035350888798),(-56.74461364746089487, -2.16998505592346014),(-56.74409072012859667, -2.17011342481285974),(-56.74455785928200413, -2.1720546474731397),(-56.74481201171879263, -2.17482495307922008),(-56.74492318012730152, -2.17614694881064974),(-56.74646924702659589, -2.17591312616674992),(-56.74726426225459619, -2.17555519584643964),(-56.74710785783929623, -2.17437820996501996),(-56.7470703125, -2.17394495010376021),(-56.74691009521480822, -2.17322158813477007),(-56.74662517674419604, -2.17170814487137953),(-56.74604528926659697, -2.17183276981172968),(-56.74595316048640115, -2.17174792674823003),(-56.74543116387440023, -2.17184735469126),(-56.74544143676759944, -2.17153167724608975),(-56.7449363552874928, -2.1698035350888798))
1503002;150300205000002;3;703;143;564;1;1;POLYGON((-56.75175001651859219, -2.16855148118636976),(-56.75153430994510018, -2.16765977413782007),(-56.74985504427739613, -2.16919990810654006),(-56.74951928212439611, -2.16986992954864988),(-56.7486974121724046, -2.17060145130623017),(-56.74775562044539612, -2.1709559007228898),(-56.74788991752070189, -2.17215628318329967),(-56.7484570377876949, -2.17490665279841),(-56.74924935482600574, -2.17442045829778019),(-56.7499472255413977, -2.17364504635978983),(-56.75068386683209809, -2.17261762561039973),(-56.75107157280109504, -2.17186159896004982),(-56.75149804934540043, -2.17073725170039999),(-56.75164711644929838, -2.1701978823674799),(-56.75170428315449556, -2.16946614854122988),(-56.75175001651859219, -2.16855148118636976))
1503002;150300205000003;3;383;73;314;1;1;POLYGON((-56.74263924038139351, -2.1708120271582696),(-56.73932690761989761, -2.17169403438010988),(-56.7380411838213945, -2.17203639662362979),(-56.73813224097020225, -2.17332254247974976),(-56.73820266066319107, -2.17392309363796965),(-56.74151759060679723, -2.17322511494143011),(-56.74317074004179773, -2.17300535320790988),(-56.74311503147529834, -2.17265566749549999),(-56.74307665497819642, -2.17221433777814976),(-56.74282720774660049, -2.17127411359770983),(-56.74263924038139351, -2.1708120271582696))
1503002;150300205000004;3;144;31;123;1;1;POLYGON((-56.74551430524260098, -2.16681309788882981),(-56.74414260023349499, -2.16740374680429992),(-56.74409793338139707, -2.16742298011435963),(-56.74478530883789773, -2.16928672790526988),(-56.7449363552874928, -2.1698035350888798),(-56.7466984046227978, -2.16881239499362977),(-56.74580764770509944, -2.16814327239989968),(-56.74575778321499797, -2.16804337510302991),(-56.74564361575609439, -2.16783666612876003),(-56.74551430524260098, -2.16681309788882981))
1503002;150300205000005;3;28;7;20;1;1;POLYGON((-56.74536167921349517, -2.16560497372640004),(-56.74288996917329797, -2.16650559685266009),(-56.74044976528760031, -2.16739474000314969),(-56.74076241101059992, -2.16885923838994987),(-56.74155891683230379, -2.1685162671995899),(-56.74409793338139707, -2.16742298011435963),(-56.74414260023349499, -2.16740374680429992),(-56.74551430524260098, -2.16681309788882981),(-56.74536167921349517, -2.16560497372640004))
1503002;150300205000006;3;315;71;271;1;1;POLYGON((-56.74409793338139707, -2.16742298011435963),(-56.74155891683230379, -2.1685162671995899),(-56.74211479742039899, -2.1697718896179401),(-56.74236668978069531, -2.17014200693146986),(-56.74263924038139351, -2.1708120271582696),(-56.7427867470888927, -2.17077274910543006),(-56.74369067893280061, -2.17021162745181018),(-56.74409072012859667, -2.17011342481285974),(-56.74461364746089487, -2.16998505592346014),(-56.7449363552874928, -2.1698035350888798),(-56.74478530883789773, -2.16928672790526988),(-56.74409793338139707, -2.16742298011435963))
1503002;150300205000007;3;254;50;211;1;1;POLYGON((-56.74211479742039899, -2.1697718896179401),(-56.74175253851790046, -2.17000199744563016),(-56.73924696194029593, -2.17062024554810984),(-56.73925950557579512, -2.17081780780670019),(-56.73932690761989761, -2.17169403438010988),(-56.74263924038139351, -2.1708120271582696),(-56.74236668978069531, -2.17014200693146986),(-56.74211479742039899, -2.1697718896179401))
1503002;150300205000008;3;129;28;99;1;1;POLYGON((-56.73912579317939731, -2.16871183756384989),(-56.73905692060900208, -2.16774762157879985),(-56.73808874074229891, -2.16784617107681976),(-56.7370634099019, -2.16811001870844988),(-56.73693955514959697, -2.16814189016084002),(-56.7338267596514001, -2.16894290353869978),(-56.73365417079800466, -2.16986337730062973),(-56.73359633730999718, -2.17065858745207985),(-56.73670615644950743, -2.17014200693146986),(-56.73917575656979295, -2.16949876096325012),(-56.73912579317939731, -2.16871183756384989))
1503002;150300205000009;3;279;55;216;1;1;POLYGON((-56.73917575656979295, -2.16949876096325012),(-56.73670615644950743, -2.17014200693146986),(-56.73359633730999718, -2.17065858745207985),(-56.73356664898169299, -2.17106680180645961),(-56.73366357549200245, -2.17203606669291993),(-56.73378243879629679, -2.17233817759814007),(-56.73494943773820154, -2.17210646533534968),(-56.73532219494619966, -2.17202563104914992),(-56.73799490328809725, -2.17141969968731985),(-56.7380411838213945, -2.17203639662362979),(-56.73932690761989761, -2.17169403438010988),(-56.73925950557579512, -2.17081780780670019),(-56.73924696194029593, -2.17062024554810984),(-56.73917575656979295, -2.16949876096325012))
1503002;150300205000010;3;535;96;449;1;1;POLYGON((-56.74409072012859667, -2.17011342481285974),(-56.74369067893280061, -2.17021162745181018),(-56.7427867470888927, -2.17077274910543006),(-56.74263924038139351, -2.1708120271582696),(-56.74282720774660049, -2.17127411359770983),(-56.74307665497819642, -2.17221433777814976),(-56.74311503147529834, -2.17265566749549999),(-56.74317074004179773, -2.17300535320790988),(-56.74360196641629983, -2.17624267627280998),(-56.74375530538770107, -2.17624267627280998),(-56.74492318012730152, -2.17614694881064974),(-56.74481201171879263, -2.17482495307922008),(-56.74455785928200413, -2.1720546474731397),(-56.74409072012859667, -2.17011342481285974))
1503002;150300205000011;3;323;78;249;1;1;POLYGON((-56.7466984046227978, -2.16881239499362977),(-56.7449363552874928, -2.1698035350888798),(-56.74544143676759944, -2.17153167724608975),(-56.74543116387440023, -2.17184735469126),(-56.74595316048640115, -2.17174792674823003),(-56.74604528926659697, -2.17183276981172968),(-56.74662517674419604, -2.17170814487137953),(-56.74691009521480822, -2.17322158813477007),(-56.7470703125, -2.17394495010376021),(-56.74710785783929623, -2.17437820996501996),(-56.74726426225459619, -2.17555519584643964),(-56.74771791630979578, -2.1753509525369199),(-56.7484570377876949, -2.17490665279841),(-56.74788991752070189, -2.17215628318329967),(-56.74775562044539612, -2.1709559007228898),(-56.747692068583099, -2.17038800830400014),(-56.74747180165950056, -2.16918501263414987),(-56.7466984046227978, -2.16881239499362977))
1503002;150300205000017;3;169;39;142;1;1;POLYGON((-56.74155891683230379, -2.1685162671995899),(-56.74076241101059992, -2.16885923838994987),(-56.73969952322800481, -2.16931691224250978),(-56.73917575656979295, -2.16949876096325012),(-56.73924696194029593, -2.17062024554810984),(-56.74175253851790046, -2.17000199744563016),(-56.74211479742039899, -2.1697718896179401),(-56.74155891683230379, -2.1685162671995899))
1503002;150300205000019;3;560;112;461;1;1;POLYGON((-56.75127616687469612, -2.16680198233492005),(-56.74937842368920116, -2.16701895204388029),(-56.74861301433279692, -2.16732389513140022),(-56.74633812175189718, -2.16779565091114979),(-56.74575778321499797, -2.16804337510302991),(-56.74580764770509944, -2.16814327239989968),(-56.7466984046227978, -2.16881239499362977),(-56.74747180165950056, -2.16918501263414987),(-56.747692068583099, -2.17038800830400014),(-56.74775562044539612, -2.1709559007228898),(-56.7486974121724046, -2.17060145130623017),(-56.74951928212439611, -2.16986992954864988),(-56.74985504427739613, -2.16919990810654006),(-56.75153430994510018, -2.16765977413782007),(-56.75127616687469612, -2.16680198233492005))
1503002;150300205000020;3;52;12;49;1;1;POLYGON((-56.74076241101059992, -2.16885923838994987),(-56.74044976528760031, -2.16739474000314969),(-56.73964580896929988, -2.16768767956360975),(-56.73905692060900208, -2.16774762157879985),(-56.73912579317939731, -2.16871183756384989),(-56.73917575656979295, -2.16949876096325012),(-56.73969952322800481, -2.16931691224250978),(-56.74076241101059992, -2.16885923838994987))
1503002;150300205000021;3;518;97;435;1;1;POLYGON((-56.7380411838213945, -2.17203639662362979),(-56.73799490328809725, -2.17141969968731985),(-56.73532219494619966, -2.17202563104914992),(-56.73494943773820154, -2.17210646533534968),(-56.73378243879629679, -2.17233817759814007),(-56.73412882261159496, -2.17321856981550976),(-56.73488484926190267, -2.17436230236280981),(-56.73563286561459762, -2.17515709958844017),(-56.73675721287429496, -2.17593251152643008),(-56.73840496318849347, -2.17632021742338999),(-56.73850473892940016, -2.1763160944610398),(-56.73820266066319107, -2.17392309363795988),(-56.73813224097020225, -2.17332254247974976),(-56.7380411838213945, -2.17203639662362979))
1503002;150300205000022;3;279;60;220;1;1;POLYGON((-56.74317074004179773, -2.17300535320790988),(-56.74151759060679723, -2.17322511494143011),(-56.73820266066319107, -2.17392309363796965),(-56.73850473892940016, -2.1763160944610398),(-56.74075058421809814, -2.17622329098516998),(-56.74234017859729562, -2.17624267627280998),(-56.74360196641629983, -2.17624267627280998),(-56.74317074004179773, -2.17300535320790988))
1503002;150300208000001;1;978;213;802;1;2;POLYGON((-56.60285238492275539, -2.16244965471110717),(-56.60235272423684449, -2.16195034977125333),(-56.60170099290740353, -2.161841805197386),(-56.60087546655676505, -2.16119053759110846),(-56.60013683771672532, -2.16071294116896251),(-56.59922441385548808, -2.16082148582355238),(-56.59913751634489643, -2.16112541081512521),(-56.59933303574373298, -2.16173326061573245),(-56.59950683076491629, -2.16188522302786401),(-56.59983269642965098, -2.16255819924150261),(-56.6000716645837727, -2.16281870608277371),(-56.60013683771672532, -2.16360022633819815),(-56.60044097900379967, -2.16433832843187091),(-56.60091891531205732, -2.16475079709240514),(-56.6010709859556016, -2.16561915180031539),(-56.60141857599796822, -2.16583624039953149),(-56.60215720483800794, -2.16622699979973632),(-56.60302617994394581, -2.16646579716135967),(-56.60328687247572788, -2.16624870865235675),(-56.6040255013157676, -2.16548889862584204),(-56.60454688637932463, -2.1647073793439473),(-56.60467723264521567, -2.16403440408387704),(-56.6044165401134336, -2.16362193522843826),(-56.60426446946989643, -2.16336142852510172),(-56.60369963565104712, -2.16286212388531363),(-56.60322169934277525, -2.16273187047399107),(-56.60285238492275539, -2.16244965471110717))
1503002;150300205000018;2;217;47;178;2;5;POLYGON((-56.61930747022110211, -2.18428044364583984),(-56.61951249009960208, -2.18418285472060969),(-56.61977741673219811, -2.18395717647796994),(-56.61977741673219811, -2.18377074662536019),(-56.61953211429459998, -2.18351563209020982),(-56.60925061488219256, -2.17628860782558009),(-56.60903276911100335, -2.17666456503449979),(-56.60885821754969527, -2.17695995998438008),(-56.60869709303160136, -2.17725535493424971),(-56.60857624964300783, -2.17771187440223013),(-56.60852254147030038, -2.17815496682703991),(-56.60852254147030038, -2.17857120516549996),(-56.60862995781570106, -2.17885317307218962),(-56.60880557770160237, -2.17915161480812003),(-56.60897832341829883, -2.17947052997727964),(-56.60925737419130144, -2.17980273327848995),(-56.6095630012284019, -2.18014822471173986),(-56.60970917068089392, -2.18027446196619978),(-56.60985534013339304, -2.18040069922066015),(-56.6102141196987958, -2.18066646186162982),(-56.61063933992429753, -2.18097208889873961),(-56.61099811948959371, -2.18121127527560965),(-56.6113318065744977, -2.18148761866522989),(-56.61153321222219859, -2.18168902431286993),(-56.61178832604250033, -2.1819038570036895),(-56.61213742916509517, -2.18209183560814957),(-56.61247310524450427, -2.18234694942849972),(-56.61290277062609988, -2.18256178211930996),(-56.61330558192139506, -2.18277661481012997),(-56.61372972630449851, -2.18300765961375998),(-56.61407410816529762, -2.18322984145947974),(-56.61436631833229427, -2.18335397766669992),(-56.61484969188659733, -2.18356239858148982),(-56.61523907613869255, -2.18375678896198),(-56.61562846039080199, -2.18390448643691037),(-56.61592385534069649, -2.18405218391185008),(-56.61616554211789776, -2.18414617321407967),(-56.61663548862900797, -2.18417302730042984),(-56.61710543514019633, -2.18426701660266964),(-56.61746796530589876, -2.18433415181854995),(-56.61770965208310002, -2.18437443294806988),(-56.61801847407620158, -2.18440128703442982),(-56.61815274450789559, -2.18441471407760002),(-56.61842128537149677, -2.18444156816395019),(-56.61860926397589822, -2.18445499520713016),(-56.61887780483939991, -2.18441471407760002),(-56.61914634570300109, -2.18436100590490012),(-56.61930747022110211, -2.18428044364583984))
1502301;150230105000001;4;1137;297;977;1;1;POLYGON((-47.06101242957739572, -1.74812039092758997),(-47.06154797950219404, -1.74816541482864007),(-47.06271799999999672, -1.74822042910047992),(-47.06333999999999662, -1.74825442910048001),(-47.06396199999999652, -1.74826442910047986),(-47.06450617040379569, -1.74827288770778977),(-47.06454138454889602, -1.74773334994341001),(-47.06455020894889429, -1.74716858834280986),(-47.06457226994889709, -1.74659941454222012),(-47.06459653704899893, -1.7460214163416099),(-47.06460536144900431, -1.74531767044086994),(-47.06462025262400317, -1.74430010681481007),(-47.06407600000000002, -1.74424542910047986),(-47.06345299999999554, -1.74418842910047989),(-47.06283499999999975, -1.74414342910048004),(-47.06238199999999949, -1.74412042910047993),(-47.06169899999999728, -1.74411342910048006),(-47.06111861444969691, -1.74410169876723997),(-47.06106656367949626, -1.74470800913712987),(-47.06105883023629843, -1.7452841506518999),(-47.06107236376179515, -1.74578102437436011),(-47.06105496351469952, -1.74641323335196996),(-47.06105883023629843, -1.74699517494908996),(-47.06104529671080172, -1.74757711654621994),(-47.06101242957739572, -1.74812039092758997))
1502301;150230105000002;4;1087;309;929;1;1;POLYGON((-47.06064999999999543, -1.74409342910047993),(-47.06111861444969691, -1.74410169876723997),(-47.06169899999999728, -1.74411342910048006),(-47.06238199999999949, -1.74412042910047993),(-47.06283499999999975, -1.74414342910048004),(-47.06345299999999554, -1.74418842910047989),(-47.06407600000000002, -1.74424542910047986),(-47.06462025262400317, -1.74430010681481007),(-47.06528981631230124, -1.74430411003538977),(-47.0652809795747018, -1.74369067168917002),(-47.06533392597469856, -1.74302222338846979),(-47.06530083447469792, -1.74266483518809001),(-47.06535819307469382, -1.74223243958764007),(-47.06539128457480103, -1.7414867777868599),(-47.06544872387239309, -1.74086366800785974),(-47.06545398008010039, -1.74080059616042981),(-47.0655969999999968, -1.73908442910047989),(-47.06347106265999969, -1.73901583089390988),(-47.06209499999999935, -1.73897142910047986),(-47.06208955690279794, -1.73963947855936985),(-47.06208920272600693, -1.73968294786584998),(-47.06208884733400311, -1.73972656630489997),(-47.06207999999999458, -1.74081242910048006),(-47.06020287524489731, -1.74069443840158988),(-47.06015741405079922, -1.74069169230938003),(-47.05905780182100528, -1.74070788566719004),(-47.05909599999999671, -1.74348442910047985),(-47.06006099999999748, -1.74353442910047995),(-47.06006775954559629, -1.7437507345608898),(-47.06008999999999531, -1.74408442910048),(-47.06064999999999543, -1.74409342910047993))
1502301;150230105000003;4;1013;293;840;1;1;POLYGON((-47.05910441104369824, -1.74016476317614988),(-47.05905780182100528, -1.74070788566719004),(-47.06015741405079922, -1.74069169230938003),(-47.06020287524489731, -1.74069443840158988),(-47.06207999999999458, -1.74081242910048006),(-47.06208884733400311, -1.73972656630489997),(-47.06208920272600693, -1.73968294786584998),(-47.06208955690279794, -1.73963947855936985),(-47.06209499999999935, -1.73897142910047986),(-47.06170399999999887, -1.73860742910048005),(-47.06178500000000042, -1.73789142910047989),(-47.06155299999999642, -1.73687742910048004),(-47.06162699999999433, -1.73626342910047993),(-47.06184899999999516, -1.73582742910048005),(-47.06172000000000111, -1.73528042910047997),(-47.06172000000000111, -1.7344904291004799),(-47.06133299999999764, -1.73394442910047997),(-47.06157782111129961, -1.72668484883536988),(-47.06071537936149696, -1.72667020690662998),(-47.06067056394779513, -1.72666944606208994),(-47.06061738439590414, -1.72666947550939009),(-47.05901329117590137, -1.72667036374951),(-47.05902564480119565, -1.73539860079062991),(-47.05903293135709475, -1.73543362553790992),(-47.05903199611039867, -1.73629966400280988),(-47.05913019701629452, -1.73964597677536981),(-47.05910441104369824, -1.74016476317614988))
1502301;150230105000004;4;675;188;551;1;1;POLYGON((-47.0587809999999962, -1.74806242910048004),(-47.05986799999999448, -1.74809242910048002),(-47.060418999999996, -1.74813042910048),(-47.06101242957739572, -1.74812039092758997),(-47.06104529671080172, -1.74757711654621994),(-47.06105883023629843, -1.74699517494908996),(-47.06105496351469952, -1.74641323335196996),(-47.06107236376179515, -1.74578102437436011),(-47.06105883023629843, -1.7452841506518999),(-47.06106656367949626, -1.74470800913712987),(-47.06111861444969691, -1.74410169876723997),(-47.06064999999999543, -1.74409342910047993),(-47.06008999999999531, -1.74408442910048),(-47.06006775954559629, -1.7437507345608898),(-47.06006099999999748, -1.74353442910047995),(-47.05909599999999671, -1.74348442910047985),(-47.05903599999999898, -1.74400642910047998),(-47.05899300000000096, -1.74466042910047991),(-47.05854099999999818, -1.74465142910047999),(-47.05852199999999641, -1.74519642910048001),(-47.05746800000000007, -1.74521742910048006),(-47.05635600000000096, -1.74517942910047985),(-47.05627899999999642, -1.74605542910047995),(-47.05625999999999465, -1.74656142910048007),(-47.05566100000000063, -1.74654242910047985),(-47.05562199999999962, -1.74687342910047994),(-47.05559399999999926, -1.74733142910048),(-47.05621299999999962, -1.74734042910047993),(-47.05759599999999665, -1.7474164291004799),(-47.05815756580170017, -1.74740567176559991),(-47.05810232600709497, -1.74806749214409973),(-47.0587809999999962, -1.74806242910048004))
1502301;150230105000005;4;567;157;488;1;1;POLYGON((-47.05445237618599919, -1.75164692533565991),(-47.05700545329689533, -1.75174358761562976),(-47.05768700000000138, -1.75173242910047988),(-47.05822299999999814, -1.75177042910047986),(-47.05884899999999504, -1.75180842910047985),(-47.05970199999999437, -1.75188342910047989),(-47.06036699999999939, -1.75189842910047999),(-47.06080662866720132, -1.75192021088134986),(-47.06138610849900061, -1.75194584584589985),(-47.06138271875329337, -1.75188926925733002),(-47.061478059014199, -1.75049438850489003),(-47.06035947042509804, -1.75052612151451004),(-47.05976127451199886, -1.75046915047516993),(-47.05892569926829339, -1.75038369391616011),(-47.05836548404819553, -1.75040268426260992),(-47.05773880261540398, -1.75038369391616011),(-47.05571633071889437, -1.75040268426260992),(-47.05498520238069204, -1.75041217943582983),(-47.05457203830319912, -1.75039874215387981),(-47.05456681380790229, -1.75043672869200018),(-47.05449348075519822, -1.75096992255154005),(-47.05448244447850215, -1.75107023186445998),(-47.05445237618599919, -1.75164692533565991))
1502301;150230105000006;4;546;145;462;1;1;POLYGON((-47.06086499999999972, -1.75425242910047996),(-47.06173880984800206, -1.75424637149320994),(-47.0637100628181031, -1.75423270596136005),(-47.06372044842509439, -1.75387005360835979),(-47.06384851788440216, -1.75202404587842997),(-47.0632839999999959, -1.75199842910047998),(-47.06273900000000054, -1.75198642910047986),(-47.06186399999999992, -1.75197442910047996),(-47.06158299999999883, -1.75195442910048005),(-47.06138610849900061, -1.75194584584589985),(-47.06080662866720132, -1.75192021088134986),(-47.06076578978769476, -1.75194831533994977),(-47.06076735009249745, -1.75243222898123996),(-47.06080575435429836, -1.7531619926997799),(-47.06081262132819631, -1.75341737536303),(-47.060823206320201, -1.75381103106601999),(-47.06086499999999972, -1.75425242910047996))
1502301;150230105000007;4;1070;282;885;1;1;POLYGON((-47.05817441211959817, -1.76060367835472986),(-47.05821575953339675, -1.75851715132722997),(-47.05830554321880044, -1.75792981638558987),(-47.05844990344809275, -1.75714403044293976),(-47.05840441551839604, -1.75713133872098992),(-47.05775847594149752, -1.75694521931613989),(-47.0493570600431994, -1.7579102735229899),(-47.04931368005789949, -1.75832520985318985),(-47.04931411670359864, -1.75841434383475992),(-47.04936199999999502, -1.76097342910047994),(-47.05556568480120205, -1.76112960079062986),(-47.05573856115560005, -1.76104551233853002),(-47.05817441211959817, -1.76060367835472986))
1502301;150230105000008;4;779;220;653;1;1;POLYGON((-47.06138610849900061, -1.75194584584589985),(-47.06158299999999883, -1.75195442910048005),(-47.06186399999999992, -1.75197442910047996),(-47.06273900000000054, -1.75198642910047986),(-47.0632839999999959, -1.75199842910047998),(-47.06384851788440216, -1.75202404587842997),(-47.06372044842509439, -1.75387005360835979),(-47.0637100628181031, -1.75423270596136005),(-47.06454303047240018, -1.7542362740967099),(-47.06458459668479577, -1.75388737120875993),(-47.06457593788459803, -1.75329510927524979),(-47.06464560358769944, -1.75210431085500984),(-47.06439063956039348, -1.75206729140723971),(-47.0644090185488011, -1.75128075874712996),(-47.06441563684879981, -1.75073585204654991),(-47.06449285034879892, -1.75015564774594989),(-47.06450829304889538, -1.74955558854532001),(-47.06447740764879484, -1.74903494894477007),(-47.06450617040379569, -1.74827288770778977),(-47.06396199999999652, -1.74826442910047986),(-47.06333999999999662, -1.74825442910048001),(-47.06271799999999672, -1.74822042910047992),(-47.06154797950219404, -1.74816541482864007),(-47.06151183885500444, -1.74891018782606),(-47.06148712036189607, -1.74945399467400997),(-47.06145961315729664, -1.75008101717729003),(-47.061478059014199, -1.75049438850489003),(-47.06138271875329337, -1.75188926925733002),(-47.06138610849900061, -1.75194584584589985))
1502301;150230105000009;4;310;82;259;1;1;POLYGON((-47.06907574953709883, -1.75144764983388002),(-47.06912183183409581, -1.75088351297235989),(-47.0686940000000007, -1.75088442910047992),(-47.06812199999999535, -1.75086142910048004),(-47.06755099999999459, -1.75084842910048),(-47.06701499999999783, -1.75083542910047996),(-47.06653899999999879, -1.75083542910047996),(-47.06586449224369773, -1.75082513537959983),(-47.06518628576699825, -1.7507803661791399),(-47.0651849999999996, -1.75132642910047998),(-47.06594554780159712, -1.75136964091875003),(-47.06655699999999598, -1.75139842910048005),(-47.06707000000000107, -1.75146242910047989),(-47.0676696198545983, -1.75149795118109997),(-47.06818599999999719, -1.75151642910047989),(-47.06874599999999731, -1.75152242910048006),(-47.06907574953709883, -1.75144764983388002))
1502301;150230105000010;4;535;141;449;1;1;POLYGON((-47.06586449224369773, -1.75082513537959983),(-47.06653899999999879, -1.75083542910047996),(-47.06701499999999783, -1.75083542910047996),(-47.06755099999999459, -1.75084842910048),(-47.06812199999999535, -1.75086142910048004),(-47.0686940000000007, -1.75088442910047992),(-47.06912183183409581, -1.75088351297235989),(-47.06907678222729885, -1.74984024799643989),(-47.06909599999999472, -1.74918842910048),(-47.06908199999999454, -1.74869542910047993),(-47.06905400000000128, -1.74818042910047988),(-47.06849099999999453, -1.74820342910047999),(-47.06787800000000033, -1.7482504291004799),(-47.0678789999999978, -1.74881242910047985),(-47.06845999999999464, -1.74875142910047998),(-47.06851100000000088, -1.74925342910047998),(-47.06858799999999832, -1.74984842910047989),(-47.06804799999999744, -1.74989542910048002),(-47.0674539999999979, -1.74999742910048006),(-47.06692299999999562, -1.75011742910047996),(-47.06635599999999897, -1.75018242910047994),(-47.06577816453039276, -1.75026827523610984),(-47.06586449224369773, -1.75082513537959983))
1502301;150230105000011;4;477;117;420;1;1;POLYGON((-47.06460536144900431, -1.74531767044086994),(-47.06459653704899893, -1.7460214163416099),(-47.06457226994889709, -1.74659941454222012),(-47.06455020894889429, -1.74716858834280986),(-47.06509299016389747, -1.7471749924340001),(-47.06513899999999495, -1.74662142910048002),(-47.06797380677489429, -1.74664127692175986),(-47.06903544951129703, -1.74665226105534988),(-47.06907841640190071, -1.74665003947902986),(-47.06909525084289925, -1.74626378258269987),(-47.06908800113460245, -1.74570879593097983),(-47.06842400000000026, -1.7456404291004799),(-47.06786100000000062, -1.74559142910047993),(-47.06728400000000079, -1.74554242910047996),(-47.0667399999999958, -1.74551942910047986),(-47.06616700000000009, -1.74548542910047999),(-47.06520099999999474, -1.74537642910047985),(-47.06460536144900431, -1.74531767044086994))
1502301;150230105000012;4;743;214;641;1;1;POLYGON((-47.0692140271765922, -1.74313818803661991),(-47.06924956655200276, -1.74226653809138976),(-47.06929632888819981, -1.74160064242507984),(-47.06930755184879445, -1.74087489096852988),(-47.0675231011026014, -1.74083748109963987),(-47.06641950997029511, -1.74087489096852988),(-47.06544872387239309, -1.74086366800785974),(-47.06539128457480103, -1.7414867777868599),(-47.06535819307469382, -1.74223243958764007),(-47.06530083447469792, -1.74266483518809001),(-47.06533392597469856, -1.74302222338846979),(-47.0652809795747018, -1.74369067168917002),(-47.06528981631230124, -1.74430411003538977),(-47.06618869067069966, -1.74441284994397994),(-47.06624063307570083, -1.74369508388917005),(-47.06682321691160098, -1.74373128581714987),(-47.06741821691159799, -1.74371128581714996),(-47.06796474093159333, -1.74376542833281012),(-47.06852508350520026, -1.74379211131251011),(-47.06917849391999908, -1.74380180057589995),(-47.0692140271765922, -1.74313818803661991))
1502301;150230105000013;4;719;188;614;1;1;POLYGON((-47.06912183183409581, -1.75088351297235989),(-47.06907574953709883, -1.75144764983388002),(-47.06908370926739593, -1.75221275925055986),(-47.06908717278749776, -1.75298166070809991),(-47.06972899999999527, -1.75299242910047992),(-47.0702749999999952, -1.7529684291004799),(-47.07047599999999932, -1.75295642910048),(-47.07085299999999961, -1.75294742910047985),(-47.07124400000000009, -1.75293742910048),(-47.07192399999999566, -1.75294342910047996),(-47.0721409999999949, -1.75294542910048001),(-47.07253699999999697, -1.75295142910047996),(-47.0727720000000005, -1.75295442910047994),(-47.07304699999999542, -1.75293542910047995),(-47.07358399999999676, -1.75295142910047996),(-47.07383600000000001, -1.75295942910047997),(-47.07418399999999536, -1.75296242910047995),(-47.07417900000000088, -1.75213842910048001),(-47.07361199999999712, -1.75217642910047999),(-47.07362799999999936, -1.75159542910048005),(-47.07197799999999432, -1.75157142910048003),(-47.07146099999999933, -1.75150142910048001),(-47.0708489999999955, -1.75147642910047985),(-47.07028999999999996, -1.75148442910047986),(-47.0697175334418958, -1.7514542483532598),(-47.06970367936159505, -1.75080310657840998),(-47.0696898252812943, -1.74983332095628996),(-47.06907678222729885, -1.74984024799643989),(-47.06912183183409581, -1.75088351297235989))
1502301;150230105000014;4;1446;378;1.212;1;1;POLYGON((-47.06908717278749776, -1.75298166070809991),(-47.06908271203309369, -1.75327012582897979),(-47.06955474799819683, -1.75362587544279003),(-47.07008899999999585, -1.75415042910047991),(-47.07047299999999979, -1.75458142910047998),(-47.07102299999999673, -1.75509642910048003),(-47.07154500000000041, -1.75555442910047987),(-47.07175399999999854, -1.75580742910047993),(-47.0721647019442031, -1.75623227008543004),(-47.07267267084089468, -1.75669405999153994),(-47.07318063973760047, -1.75604755412298985),(-47.07354192242890178, -1.75565910731960995),(-47.0738869066527954, -1.75523806358168977),(-47.07426448781139783, -1.75483875113346999),(-47.07460947203529855, -1.75441499098432985),(-47.07496260549289957, -1.75403469341459983),(-47.07538636564209611, -1.75357290350848993),(-47.07569060369789327, -1.75312469565843987),(-47.07569601200110299, -1.75301380603076984),(-47.07525499999999852, -1.75299142910048),(-47.07478400000000107, -1.75296542910047992),(-47.07418399999999536, -1.75296242910047995),(-47.07383600000000001, -1.75295942910047997),(-47.07358399999999676, -1.75295142910047996),(-47.07304699999999542, -1.75293542910047995),(-47.0727720000000005, -1.75295442910047994),(-47.07253699999999697, -1.75295142910047996),(-47.0721409999999949, -1.75294542910048001),(-47.07192399999999566, -1.75294342910047996),(-47.07124400000000009, -1.75293742910048),(-47.07085299999999961, -1.75294742910047985),(-47.07047599999999932, -1.75295642910048),(-47.0702749999999952, -1.7529684291004799),(-47.06972899999999527, -1.75299242910047992),(-47.06908717278749776, -1.75298166070809991))
1502301;150230105000015;4;738;183;620;1;1;POLYGON((-47.07890700000000095, -1.75315842910048003),(-47.07698800000000006, -1.75307942910047987),(-47.07639524286800281, -1.75301987853852981),(-47.07634099999999933, -1.75301442910047989),(-47.07569601200110299, -1.75301380603076984),(-47.07569060369789327, -1.75312469565843987),(-47.07538636564209611, -1.75357290350848993),(-47.07496260549289957, -1.75403469341459983),(-47.07460947203529855, -1.75441499098432985),(-47.07426448781139783, -1.75483875113346999),(-47.07475999999999772, -1.75526242910047992),(-47.07522199999999657, -1.75569342910047999),(-47.07569199999999654, -1.75609942910047989),(-47.07617799999999875, -1.75652242910047995),(-47.07665199999999572, -1.75688542910048007),(-47.076985999999998, -1.75724942910047988),(-47.07751911241989262, -1.75770157269575988),(-47.0775551492962947, -1.7576658318101499),(-47.07920584669829367, -1.75602869249759985),(-47.07890700000000095, -1.75315842910048003))
1502301;150230105000016;4;802;224;673;1;1;POLYGON((-47.06955474799819683, -1.75362587544279003),(-47.06908271203309369, -1.75327012582897979),(-47.06904672129729761, -1.75450166485815995),(-47.06895933671349752, -1.75887533819509989),(-47.06978910807730188, -1.75889516875114982),(-47.07072151009030136, -1.75784390524363987),(-47.07118812630420024, -1.7582784987762099),(-47.07203431420600026, -1.75733513303765987),(-47.07158610635589469, -1.75687062672034),(-47.0721647019442031, -1.75623227008543004),(-47.07175399999999854, -1.75580742910047993),(-47.07154500000000041, -1.75555442910047987),(-47.07102299999999673, -1.75509642910048003),(-47.07047299999999979, -1.75458142910047998),(-47.07008899999999585, -1.75415042910047991),(-47.06955474799819683, -1.75362587544279003))
1502301;150230105000017;4;1007;251;836;1;1;POLYGON((-47.07267267084089468, -1.75669405999153994),(-47.07308499999999896, -1.75707442910048006),(-47.07358199999999471, -1.75745542910048003),(-47.0740289999999959, -1.75783742910047991),(-47.07455799999999613, -1.75831542910047989),(-47.0750759999999957, -1.75874142910047992),(-47.07547390381329677, -1.75908524896731011),(-47.07626878167140205, -1.75906619960688992),(-47.07724118230589738, -1.75905884552128011),(-47.07736656480119564, -1.75910658079062987),(-47.07760292303579774, -1.75906169909172005),(-47.07772763030079943, -1.75871612079765005),(-47.07712011103040339, -1.75813704789651992),(-47.07751911241989262, -1.75770157269575988),(-47.076985999999998, -1.75724942910047988),(-47.07665199999999572, -1.75688542910048007),(-47.07617799999999875, -1.75652242910047995),(-47.07569199999999654, -1.75609942910047989),(-47.07522199999999657, -1.75569342910047999),(-47.07475999999999772, -1.75526242910047992),(-47.07426448781139783, -1.75483875113346999),(-47.0738869066527954, -1.75523806358168977),(-47.07354192242890178, -1.75565910731960995),(-47.07318063973760047, -1.75604755412298985),(-47.07267267084089468, -1.75669405999153994))
1502301;150230105000020;9;312;77;246;2;5;POLYGON((-47.23699951171879974, -1.77759552001952992),(-47.23701691125069857, -1.7776218294566799),(-47.23737399533590064, -1.77816176819430982),(-47.23742160399049794, -1.77823375615995993),(-47.23778915405269885, -1.77878952026366988),(-47.24011611938480115, -1.77728080749512007),(-47.24045479244700374, -1.77632186803788983),(-47.24045562744139914, -1.77631950378417991),(-47.24035238684529503, -1.77614117911808989),(-47.24035072326660156, -1.77613830566406006),(-47.23742866516110439, -1.77635192871093994),(-47.2374243056586991, -1.77635482021766),(-47.23725125636830313, -1.7764695978082099),(-47.23724174499509587, -1.77647590637207009),(-47.23699951171879974, -1.77759552001952992))
1502301;150230105000025;6;635;165;512;2;5;POLYGON((-47.03121289993800502, -1.57486747304543995),(-47.03051567077640271, -1.57527732849121005),(-47.03020803365709668, -1.57594975935303983),(-47.03016662597659803, -1.57604026794433993),(-47.03017426995059225, -1.57612570059532997),(-47.03042602539059658, -1.57893943786620983),(-47.03101874567799712, -1.57908413134812986),(-47.03107452392579546, -1.57909774780272993),(-47.03111033125880169, -1.57909584003498993),(-47.03188490615480077, -1.57905457170036989),(-47.03196700484779313, -1.5790501975896698),(-47.03200531005860086, -1.57904815673827992),(-47.03329467773439632, -1.57730102539062988),(-47.03324893194169931, -1.57701557734450981),(-47.03323208453370086, -1.57691045161798993),(-47.03268241882319955, -1.57348060607910001),(-47.03261628676469996, -1.57303247539095992),(-47.03260820604379688, -1.57303790821430001),(-47.0325938458691013, -1.57305329287248008),(-47.03258847099359485, -1.57306957290379978),(-47.03257500838429905, -1.57308405253072991),(-47.03254360848519866, -1.57313109924593975),(-47.03250772426299875, -1.57318628773480995),(-47.03245478541280278, -1.57325776767372982),(-47.03239195930979832, -1.57332473650722005),(-47.03234527624019989, -1.57336185246769),(-47.03228061555049777, -1.57338994445470992),(-47.03218000312569558, -1.5734036051055198),(-47.03205154510459352, -1.57342362204851005),(-47.0319419473580993, -1.57343638731826974),(-47.03180988327229528, -1.57344374960875988),(-47.03165353317089625, -1.57342220266565991),(-47.03157988888950314, -1.57345120757812995),(-47.03144159438259919, -1.5735191543208098),(-47.0313293091435014, -1.57354005959101984),(-47.03123592712989876, -1.5735980167502599),(-47.03117219987179709, -1.5736622740258599),(-47.03115250685129922, -1.57373733814441996),(-47.03114360654630133, -1.57382414573650986),(-47.03117062733100084, -1.57389373928158993),(-47.03121113090700334, -1.57396964873448986),(-47.03125525894119363, -1.57407720006928997),(-47.03131016655429875, -1.57418293255119002),(-47.0313318282616919, -1.57428508090098984),(-47.0313498812981976, -1.57437186213947999),(-47.03135175446509919, -1.57445052179752998),(-47.03133745652800002, -1.57453010141959004),(-47.03132763152059681, -1.57458978525859994),(-47.03126488076580358, -1.5747345114209399),(-47.03123710530280022, -1.57481320007157999),(-47.03121289993800502, -1.57486747304543995))
1502301;150230105000029;10;457;108;375;2;5;POLYGON((-47.05104255676269531, -1.85830688476563011),(-47.05134141874479781, -1.85840288285683997),(-47.05135726928709516, -1.85840797424315984),(-47.05139946702249887, -1.85840757235997001),(-47.05155754089359732, -1.85840606689452992),(-47.052001953125, -1.85836219787597989),(-47.05241775512700286, -1.85841941833495983),(-47.05266189575200286, -1.85863685607910001),(-47.05293464660640268, -1.85893821716308993),(-47.05307579040530186, -1.85893821716308993),(-47.05353546142579546, -1.85880851745605002),(-47.05357456207279654, -1.85880088806152011),(-47.05361366271969814, -1.85879325866698997),(-47.0536918640137003, -1.85877799987792991),(-47.05386352539059658, -1.85877799987792991),(-47.05412101745609732, -1.85872077941894998),(-47.05426406860349431, -1.85873413085937988),(-47.05452156066890268, -1.85860443115233998),(-47.05493545532230115, -1.85863304138183993),(-47.0554103851317933, -1.85863304138183993),(-47.05525779724119673, -1.85698699951172008),(-47.0542259216308949, -1.85545539855956987),(-47.05191528940890322, -1.85632025588652994),(-47.05118370056149502, -1.85659408569335982),(-47.05061340332029829, -1.85786056518554976),(-47.05075645446780186, -1.85810661315917991),(-47.05088615417479758, -1.8582344055175799),(-47.05104255676269531, -1.85830688476563011))
1502301;150230105000030;8;680;179;567;2;5;POLYGON((-47.170972824096701, -1.76767539978026988),(-47.17151247470179953, -1.77034346256239994),(-47.1722662505227035, -1.77019148874121979),(-47.1724300384520987, -1.77118682861327992),(-47.17460632324219461, -1.77075767517089999),(-47.1743689140100031, -1.76989839548732997),(-47.17430555373229595, -1.76966906910894983),(-47.17409515380860086, -1.76890754699707009),(-47.17154502868649502, -1.76756286621093994),(-47.170972824096701, -1.76767539978026988))
1502301;150230105000034;11;377;102;309;2;5;POLYGON((-47.15409278869629617, -1.90888595581054998),(-47.15463447570800071, -1.90961074829101984),(-47.15495730549879738, -1.90987660811877991),(-47.15499114990229401, -1.90990447998046986),(-47.15515259086870259, -1.90981274017593994),(-47.15786796158959504, -1.90826971435806003),(-47.157911300659201, -1.90824508666991988),(-47.15787714601930247, -1.9081553629731498),(-47.15694999694819955, -1.9057197570800799),(-47.15692062788579619, -1.90569765418171988),(-47.15676971058079658, -1.90556831653142988),(-47.15671157836909799, -1.90551948547362993),(-47.15632820129389557, -1.90545082092284979),(-47.1559505462645987, -1.90547180175780984),(-47.15544128417969461, -1.90568923950195002),(-47.15433311462400212, -1.90673828125),(-47.15394783020019531, -1.90710258483886985),(-47.15347290039060368, -1.90739440917968972),(-47.1528570673253995, -1.90797705363663983),(-47.15282058715819602, -1.90803718566894998),(-47.15318298339840197, -1.90826606750487993),(-47.15340805053710227, -1.90838432312011985),(-47.15355110168459873, -1.90849304199218994),(-47.15386059930419549, -1.90871753674442002),(-47.15403381505419844, -1.90884317915464985),(-47.15409278869629617, -1.90888595581054998))
1502301;150230105000035;12;507;125;434;2;5;POLYGON((-47.19980812072749643, -1.90396118164063011),(-47.19982147216800428, -1.90407943725585982),(-47.20033046995680337, -1.90407354251811989),(-47.20360946655269885, -1.90403556823730002),(-47.20357894897460227, -1.90274047851562988),(-47.19979667663569955, -1.90277862548827992),(-47.1997814178466939, -1.90290069580077992),(-47.19983673095700283, -1.90307807922362993),(-47.1998171664438928, -1.90317880023540975),(-47.19978523254389557, -1.90334320068358998),(-47.19979691159100099, -1.90345480046625992),(-47.19980239868159799, -1.90350723266601984),(-47.1998577117920064, -1.90369987487792991),(-47.19980812072749643, -1.90396118164063011))
1502301;150230105000037;13;234;59;0;2;5;POLYGON((-47.16960716247560015, -2.05307388305663974),(-47.16980743408200283, -2.05355834960937988),(-47.16996192932130327, -2.05349922180176003),(-47.17016792297359729, -2.05338096618651988),(-47.17050743103030186, -2.05309104919433993),(-47.17092704772949929, -2.05279350280761985),(-47.17104911804199929, -2.0526962280273402),(-47.171142578125, -2.05256652832031028),(-47.17128562927249646, -2.05245590209960982),(-47.17140960693359375, -2.05242347717285023),(-47.17156791687009587, -2.05234336853026988),(-47.17176628112790127, -2.05225563049315962),(-47.17190551757809658, -2.05216217041016025),(-47.17203330993650212, -2.05200004577636985),(-47.17215728759769888, -2.0517997741699201),(-47.17223739624019885, -2.0516185760497998),(-47.17228126525879617, -2.05135345458983975),(-47.17229843139649859, -2.05111694335937988),(-47.1722602844237997, -2.05089950561522993),(-47.1722656704834975, -2.05046958953269032),(-47.17237250431269757, -2.05006306494046964),(-47.17237472534179688, -2.04977798461913974),(-47.17159600857119983, -2.04952143064434011),(-47.1714706589003967, -2.04948013327215994),(-47.17139053344729405, -2.04945373535155984),(-47.16874122619629617, -2.05117797851562988),(-47.16898536682129617, -2.05182647705077992),(-47.16929435729979758, -2.05250167846679998),(-47.16960716247560015, -2.05307388305663974))
1502301;150230105000043;14;647;157;525;2;5;POLYGON((-47.2291345785437926, -2.20047568476462008),(-47.22839910659200768, -2.19990569400197966),(-47.22588011515709638, -2.19996085439836975),(-47.22378402009449161, -2.20200178906458),(-47.22249694417889998, -2.20542173364039984),(-47.2229198405511994, -2.2056423752259402),(-47.22328757652709896, -2.20582624321388021),(-47.22380240689329867, -2.20589979040906004),(-47.22409659567400553, -2.2058630168114699),(-47.2243356240583978, -2.20597333760423986),(-47.2245746524426977, -2.20608365839700982),(-47.22479529402819765, -2.20630429998254973),(-47.22501593561379707, -2.20658010196446996),(-47.22519980360169711, -2.2068559039463902),(-47.22540205838839711, -2.20705815873313016),(-47.22560431317519658, -2.20722363992227999),(-47.22584334155949648, -2.20729718711746026),(-47.22608236994389586, -2.20733396071504995),(-47.22648687951730295, -2.2071868663246903),(-47.22667074750529537, -2.20689267754397989),(-47.22673175508089827, -2.20619873619494999),(-47.22676268149930223, -2.20578946961628963),(-47.22678106829809508, -2.20542173364039984),(-47.22676339921909516, -2.20521776791136981),(-47.22681784189559551, -2.20490690327414995),(-47.22705687028000199, -2.20433691251150998),(-47.22746137985350146, -2.20395078973681979),(-47.2277187950365942, -2.20367498775490001),(-47.2282336254027939, -2.20336241217538964),(-47.2288587765618928, -2.20310499699225959),(-47.2291345785437926, -2.20047568476462008))
1502301;150230105000045;15;418;90;371;2;5;POLYGON((-47.18551543977529406, -2.47956670555651959),(-47.18555716693519742, -2.47898909200448969),(-47.18128761928749526, -2.47871213991465966),(-47.18136337515780099, -2.48325220012921966),(-47.1812961766684964, -2.48470180028484),(-47.18124656175069731, -2.48656034659558989),(-47.18160524082509966, -2.48658054470655987),(-47.18218130997559712, -2.48651901654610974),(-47.18405366912659815, -2.48653850835300982),(-47.18406186632630295, -2.4864828349399799),(-47.18408389270300773, -2.48633323707540965),(-47.1845603687538997, -2.48528916328413985),(-47.18462348583959454, -2.4848623434250996),(-47.18468104636559701, -2.48433608653395988),(-47.18487418262660071, -2.48371739076030984),(-47.18497759242299594, -2.4831955781574897),(-47.18521169580609609, -2.48234537603878991),(-47.18530447552449658, -2.48191850722576968),(-47.1853548131513989, -2.48137237336846983),(-47.18547367015719374, -2.4809517897805895),(-47.1855218192098036, -2.48071484704165979),(-47.18551543977529406, -2.47956670555651959))
1502301;150230105000046;7;652;161;519;2;5;POLYGON((-47.17010116577149859, -1.74149894714355002),(-47.17185324237400579, -1.74169535622214999),(-47.17219927817460245, -1.74173414709046992),(-47.17631149291990056, -1.74219512939452992),(-47.17735862731930041, -1.73465538024901988),(-47.17166137695310368, -1.73384857177733975),(-47.1716575622558949, -1.73424911499022993),(-47.17156219482419743, -1.73462295532226984),(-47.17114067077640271, -1.73566436767577992),(-47.17117691040039773, -1.73632240295410001),(-47.171142578125, -1.73670196533202992),(-47.17094802856449576, -1.73716735839843994),(-47.17087364196780186, -1.73811531066894975),(-47.17078590393069248, -1.73837661743163996),(-47.17053604125980115, -1.7387886047363299),(-47.17038726806639914, -1.73921775817871005),(-47.17027091979979758, -1.73949050903320002),(-47.17022895812989702, -1.73989677429198997),(-47.1703071594237997, -1.74043464660644975),(-47.17024421691889557, -1.74090194702147993),(-47.17011642456049714, -1.7412490844726598),(-47.17010116577149859, -1.74149894714355002))
1502301;150230105000047;5;373;97;301;2;5;POLYGON((-47.04317855834959516, -1.70267295837401988),(-47.04301530086349459, -1.70333390847828992),(-47.04298272778019196, -1.70346578103912005),(-47.04272289895460091, -1.70451770149577975),(-47.04195976257319955, -1.70760726928710982),(-47.0419799944595951, -1.70761303153322985),(-47.04206834709660257, -1.70763819525893989),(-47.0431652069091939, -1.70795059204101984),(-47.04487037658689275, -1.70479393005371005),(-47.04819679260249643, -1.70508003234862993),(-47.04814215899009611, -1.70502144591672988),(-47.04804017729750143, -1.70491208570370989),(-47.04598236083979401, -1.70270538330077992),(-47.04317855834959516, -1.70223808288573997),(-47.04317855834959516, -1.70267295837401988))
1502301;150230105000049;4;580;155;498;1;1;POLYGON((-47.0545851317573991, -1.74795961870200989),(-47.05499499999999813, -1.74797442910047995),(-47.05528980173089337, -1.74799282395396993),(-47.05560399999999532, -1.74801242910047994),(-47.05619561474659207, -1.74802928955873993),(-47.05708299999999866, -1.74805442910048003),(-47.05758699999999806, -1.74806842910047999),(-47.05810232600709497, -1.74806749214409973),(-47.05815756580170017, -1.74740567176559991),(-47.05759599999999665, -1.7474164291004799),(-47.05621299999999962, -1.74734042910047993),(-47.05559399999999926, -1.74733142910048),(-47.05562199999999962, -1.74687342910047994),(-47.05566100000000063, -1.74654242910047985),(-47.05625999999999465, -1.74656142910048007),(-47.05627899999999642, -1.74605542910047995),(-47.05635600000000096, -1.74517942910047985),(-47.05746800000000007, -1.74521742910048006),(-47.05852199999999641, -1.74519642910048001),(-47.05854099999999818, -1.74465142910047999),(-47.05899300000000096, -1.74466042910047991),(-47.05903599999999898, -1.74400642910047998),(-47.05909599999999671, -1.74348442910047985),(-47.05905780182100528, -1.74070788566719004),(-47.05910441104369824, -1.74016476317614988),(-47.05674126879599584, -1.74012883235834992),(-47.05655064480119165, -1.74008454079063002),(-47.05503699999999867, -1.73997842910048006),(-47.05476600000000076, -1.74438442910047997),(-47.0508260000000007, -1.74409742910048005),(-47.05082259300309744, -1.74417644136742989),(-47.05081850702229929, -1.74427120006658987),(-47.05068999999999591, -1.74725142910047992),(-47.0545372641003965, -1.74729301984376995),(-47.05458884786879281, -1.74730308262637979),(-47.05457987207100246, -1.74733875740390987),(-47.05458325641080108, -1.74791081234632983),(-47.0545851317573991, -1.74795961870200989))
1502301;150230105000050;4;1006;286;836;1;1;POLYGON((-47.06154797950219404, -1.74816541482864007),(-47.06101242957739572, -1.74812039092758997),(-47.060418999999996, -1.74813042910048),(-47.05986799999999448, -1.74809242910048002),(-47.0587809999999962, -1.74806242910048004),(-47.05810232600709497, -1.74806749214409973),(-47.05758699999999806, -1.74806842910047999),(-47.05708299999999866, -1.74805442910048003),(-47.05619561474659207, -1.74802928955873993),(-47.05560399999999532, -1.74801242910047994),(-47.05528980173089337, -1.74799282395396993),(-47.05499499999999813, -1.74797442910047995),(-47.0545851317573991, -1.74795961870200989),(-47.05458330144040247, -1.74799919614664989),(-47.05457298063380023, -1.75034983623737994),(-47.05457203830319912, -1.75039874215387981),(-47.05498520238069204, -1.75041217943582983),(-47.05571633071889437, -1.75040268426260992),(-47.05773880261540398, -1.75038369391616011),(-47.05836548404819553, -1.75040268426260992),(-47.05892569926829339, -1.75038369391616011),(-47.05976127451199886, -1.75046915047516993),(-47.06035947042509804, -1.75052612151451004),(-47.061478059014199, -1.75049438850489003),(-47.06145961315729664, -1.75008101717729003),(-47.06148712036189607, -1.74945399467400997),(-47.06151183885500444, -1.74891018782606),(-47.06154797950219404, -1.74816541482864007))
1502301;150230105000051;4;713;178;594;1;1;POLYGON((-47.05830554321880044, -1.75792981638558987),(-47.05821575953339675, -1.75851715132722997),(-47.05817441211959817, -1.76060367835472986),(-47.06148400000000009, -1.76062042910047989),(-47.06148299999999551, -1.7573004291004799),(-47.06106099999999515, -1.75669642910047985),(-47.06092499999999745, -1.75606242910048005),(-47.06096999999999753, -1.75545942910047992),(-47.06086499999999972, -1.75425242910047996),(-47.060823206320201, -1.75381103106601999),(-47.06081262132829579, -1.75341737536549003),(-47.06080575435429836, -1.7531619926997799),(-47.06076735009249745, -1.75243222898123996),(-47.06076578978769476, -1.75194831533994977),(-47.06080662866720132, -1.75192021088134986),(-47.06036699999999939, -1.75189842910047999),(-47.05970199999999437, -1.75188342910047989),(-47.05884899999999504, -1.75180842910047985),(-47.05822299999999814, -1.75177042910047986),(-47.05768700000000138, -1.75173242910047988),(-47.05700545329689533, -1.75174358761562976),(-47.05445237618599919, -1.75164692533565991),(-47.05458036092740315, -1.75337531596628993),(-47.05457984493229873, -1.75342047782889998),(-47.05457932893729378, -1.75346563969150981),(-47.0545533333688013, -1.75574087143192981),(-47.05775847594149752, -1.75694521931613989),(-47.05840441551839604, -1.75713133872098992),(-47.05844990344809275, -1.75714403044293976),(-47.05830554321880044, -1.75792981638558987))
1502301;150230105000052;4;808;222;707;1;1;POLYGON((-47.06441563684879981, -1.75073585204654991),(-47.0644090185488011, -1.75128075874712996),(-47.06439063956039348, -1.75206729140723971),(-47.06464560358769944, -1.75210431085500984),(-47.06457593788459803, -1.75329510927524979),(-47.06458459668479577, -1.75388737120875993),(-47.06454303047240018, -1.7542362740967099),(-47.06670300962179709, -1.75424291443523983),(-47.06696875867889673, -1.75451668005473005),(-47.0686855347301929, -1.75449835148477984),(-47.06904672129729761, -1.75450166485815995),(-47.06908271203309369, -1.75327012582897979),(-47.06908717278749776, -1.75298166070809991),(-47.06908370926739593, -1.75221275925055986),(-47.06907574953709883, -1.75144764983388002),(-47.06874599999999731, -1.75152242910048006),(-47.06818599999999719, -1.75151642910047989),(-47.0676696198545983, -1.75149795118109997),(-47.06707000000000107, -1.75146242910047989),(-47.06655699999999598, -1.75139842910048005),(-47.06594554780159712, -1.75136964091875003),(-47.0651849999999996, -1.75132642910047998),(-47.06518628576699825, -1.7507803661791399),(-47.06441563684879981, -1.75073585204654991))
1502301;150230105000053;4;630;161;533;1;1;POLYGON((-47.06907147497030053, -1.74690292161585004),(-47.06902620714340202, -1.74691024367239001),(-47.06848000000000098, -1.74724742910048003),(-47.06808799999999593, -1.74735342910047997),(-47.06722800000000007, -1.74785142910047986),(-47.06595899999999943, -1.74900942910047985),(-47.06567715788440154, -1.74916094311684978),(-47.06577000000000055, -1.74963042910048006),(-47.06577816453039276, -1.75026827523610984),(-47.06635599999999897, -1.75018242910047994),(-47.06692299999999562, -1.75011742910047996),(-47.0674539999999979, -1.74999742910048006),(-47.06804799999999744, -1.74989542910048002),(-47.06858799999999832, -1.74984842910047989),(-47.06851100000000088, -1.74925342910047998),(-47.06845999999999464, -1.74875142910047998),(-47.0678789999999978, -1.74881242910047985),(-47.06787800000000033, -1.7482504291004799),(-47.06849099999999453, -1.74820342910047999),(-47.06905400000000128, -1.74818042910047988),(-47.06907147497030053, -1.74690292161585004))
1502301;150230105000054;4;723;209;619;1;1;POLYGON((-47.06454138454889602, -1.74773334994341001),(-47.06450617040379569, -1.74827288770778977),(-47.06447740764879484, -1.74903494894477007),(-47.06450829304889538, -1.74955558854532001),(-47.06449285034879892, -1.75015564774594989),(-47.06441563684879981, -1.75073585204654991),(-47.06518628576699825, -1.7507803661791399),(-47.06586449224369773, -1.75082513537959983),(-47.06577816453039276, -1.75026827523610984),(-47.06577000000000055, -1.74963042910048006),(-47.06567715788440154, -1.74916094311684978),(-47.06595899999999943, -1.74900942910047985),(-47.06722800000000007, -1.74785142910047986),(-47.06808799999999593, -1.74735342910047997),(-47.06848000000000098, -1.74724742910048003),(-47.06902620714340202, -1.74691024367239001),(-47.06907147497030053, -1.74690292161585004),(-47.06907841640190071, -1.74665003947902986),(-47.06903544951129703, -1.74665226105534988),(-47.06797380677489429, -1.74664127692175986),(-47.06513899999999495, -1.74662142910048002),(-47.06509299016389747, -1.7471749924340001),(-47.06455020894889429, -1.74716858834280986),(-47.06454138454889602, -1.74773334994341001))
1502301;150230105000055;4;961;264;816;1;1;POLYGON((-47.06462025262400317, -1.74430010681481007),(-47.06460536144900431, -1.74531767044086994),(-47.06520099999999474, -1.74537642910047985),(-47.06616700000000009, -1.74548542910047999),(-47.0667399999999958, -1.74551942910047986),(-47.06728400000000079, -1.74554242910047996),(-47.06786100000000062, -1.74559142910047993),(-47.06842400000000026, -1.7456404291004799),(-47.06908800113460245, -1.74570879593097983),(-47.06917474681429781, -1.74513961602243994),(-47.06913359595849755, -1.74453544663979998),(-47.06917849391999908, -1.74380180057589995),(-47.06852508350520026, -1.74379211131251011),(-47.06796474093159333, -1.74376542833281012),(-47.06741821691159799, -1.74371128581714996),(-47.06682321691160098, -1.74373128581714987),(-47.06624063307570083, -1.74369508388917005),(-47.06618869067069966, -1.74441284994397994),(-47.06528981631230124, -1.74430411003538977),(-47.06462025262400317, -1.74430010681481007))
1502301;150230105000056;4;1700;432;1.434;1;1;POLYGON((-47.07890000000000441, -1.75014142910047998),(-47.07292880821329817, -1.74341404124071997),(-47.07289403220470092, -1.74337486117310991),(-47.07285925619610367, -1.74333568110552983),(-47.06936064329779867, -1.74082466925646995),(-47.06930755184879445, -1.74087489096852988),(-47.06929632888819981, -1.74160064242507984),(-47.06924956655200276, -1.74226653809138976),(-47.0692140271765922, -1.74313818803661991),(-47.06917849391999908, -1.74380180057589995),(-47.06913359595849755, -1.74453544663979998),(-47.06917474681429781, -1.74513961602243994),(-47.06908800113460245, -1.74570879593097983),(-47.06909525084289925, -1.74626378258269987),(-47.06907841640190071, -1.74665003947902986),(-47.06907147497030053, -1.74690292161585004),(-47.06905400000000128, -1.74818042910047988),(-47.06908199999999454, -1.74869542910047993),(-47.06909599999999472, -1.74918842910048),(-47.06907678222729885, -1.74984024799643989),(-47.0696898252812943, -1.74983332095628996),(-47.06970367936159505, -1.75080310657840998),(-47.0697175334418958, -1.7514542483532598),(-47.07028999999999996, -1.75148442910047986),(-47.0708489999999955, -1.75147642910047985),(-47.07146099999999933, -1.75150142910048001),(-47.07197799999999432, -1.75157142910048003),(-47.07362799999999936, -1.75159542910048005),(-47.07361199999999712, -1.75217642910047999),(-47.07417900000000088, -1.75213842910048001),(-47.07418399999999536, -1.75296242910047995),(-47.07478400000000107, -1.75296542910047992),(-47.07525499999999852, -1.75299142910048),(-47.07569601200110299, -1.75301380603076984),(-47.07634099999999933, -1.75301442910047989),(-47.07639524286800281, -1.75301987853852981),(-47.07698800000000006, -1.75307942910047987),(-47.07890700000000095, -1.75315842910048003),(-47.07890000000000441, -1.75014142910047998))
1502301;150230105000057;4;588;140;493;1;1;POLYGON((-47.07547390381329677, -1.75908524896731011),(-47.0750759999999957, -1.75874142910047992),(-47.07455799999999613, -1.75831542910047989),(-47.0740289999999959, -1.75783742910047991),(-47.07358199999999471, -1.75745542910048003),(-47.07308499999999896, -1.75707442910048006),(-47.07267267084089468, -1.75669405999153994),(-47.0721647019442031, -1.75623227008543004),(-47.07158610635589469, -1.75687062672034),(-47.07203431420600026, -1.75733513303765987),(-47.07118812630420024, -1.7582784987762099),(-47.07072151009030136, -1.75784390524363987),(-47.06978910807730188, -1.75889516875114982),(-47.07547390381329677, -1.75908524896731011))
1502301;150230105000059;8;649;162;537;2;5;POLYGON((-47.16850662231450286, -1.77099990844727007),(-47.16853740378350324, -1.77105468491972995),(-47.16899108886720171, -1.77186203002929976),(-47.1724300384520987, -1.77118682861327992),(-47.1722662505227035, -1.77019148874121979),(-47.17151247470179953, -1.77034346256239994),(-47.170972824096701, -1.76767539978026988),(-47.17082786560059304, -1.76770401000976984),(-47.1686228395278988, -1.7708348933734801),(-47.16850662231450286, -1.77099990844727007))